<?xml version="1.0" encoding="UTF-8" standalone="no"?>
<svg
   sodipodi:docname="Orphaned_file.svg"
   inkscape:version="1.2.1 (1:1.2.1+202210291244+9c6d41e410)"
   id="svg8"
   version="1.1"
   viewBox="0 0 600.00002 420"
   height="420mm"
   width="600mm"
   inkscape:export-filename="./Orphaned_file.png"
   inkscape:export-xdpi="45.5113"
   inkscape:export-ydpi="45.5113"
   xmlns:inkscape="http://www.inkscape.org/namespaces/inkscape"
   xmlns:sodipodi="http://sodipodi.sourceforge.net/DTD/sodipodi-0.dtd"
   xmlns="http://www.w3.org/2000/svg"
   xmlns:svg="http://www.w3.org/2000/svg"
   xmlns:rdf="http://www.w3.org/1999/02/22-rdf-syntax-ns#"
   xmlns:cc="http://creativecommons.org/ns#"
   xmlns:dc="http://purl.org/dc/elements/1.1/">
  <defs
     id="defs2" />
  <sodipodi:namedview
     fit-margin-bottom="0"
     fit-margin-right="0"
     fit-margin-left="0"
     fit-margin-top="0"
     showgrid="false"
     inkscape:document-rotation="0"
     inkscape:current-layer="layer1"
     inkscape:document-units="mm"
     inkscape:cy="560"
     inkscape:cx="400"
     inkscape:zoom="0.35"
     inkscape:pageshadow="2"
     inkscape:pageopacity="0.0"
     borderopacity="1.0"
     bordercolor="#666666"
     pagecolor="#ffffff"
     id="base"
     inkscape:showpageshadow="2"
     inkscape:pagecheckerboard="0"
     inkscape:deskcolor="#d1d1d1" />
  <metadata
     id="metadata5">
    <rdf:RDF>
      <cc:Work
         rdf:about="">
        <dc:format>image/svg+xml</dc:format>
        <dc:type
           rdf:resource="http://purl.org/dc/dcmitype/StillImage" />
      </cc:Work>
    </rdf:RDF>
  </metadata>
  <g
     transform="translate(-35.661102,-83.668373)"
     id="layer1"
     inkscape:groupmode="layer"
     inkscape:label="Layer 1">
    <rect
       ry="12.513266"
       y="83.668373"
       x="35.661102"
       height="420"
       width="600"
       id="rect1025"
       style="fill:#d0ecfa;fill-opacity:1;stroke:none;stroke-width:5.86533;stroke-linecap:round;stroke-opacity:1" />
    <text
       xml:space="preserve"
       style="font-size:10.5833px;line-height:1.25;font-family:'Open Sans';-inkscape-font-specification:'Open Sans';stroke-width:0.264583"
       x="61.14452"
       y="124.29888"
       id="text67-3"><tspan
         sodipodi:role="line"
         id="tspan65-6"
         x="61.14452"
         y="124.29888"
         style="stroke-width:0.264583" /></text>
    <text
       id="text89"
       y="241.48386"
       x="93.172783"
       style="font-size:25.4px;line-height:1.25;font-family:'Open Sans';-inkscape-font-specification:'Open Sans';white-space:pre;inline-size:490.548;display:inline;stroke-width:1.17262"
       xml:space="preserve"><tspan
         x="93.172783"
         y="241.48386"
         id="tspan522"><tspan
           style="font-weight:bold;-inkscape-font-specification:'Open Sans Bold'"
           id="tspan520">Note:
</tspan></tspan><tspan
         x="93.172783"
         y="273.23386"
         id="tspan524">Linking to files outside the project may </tspan><tspan
         x="93.172783"
         y="304.98386"
         id="tspan526">cause problems with documentation </tspan><tspan
         x="93.172783"
         y="336.73386"
         id="tspan528">portability.</tspan></text>
    <g
       transform="matrix(4.4319681,0,0,4.4319681,-122.38777,-263.69469)"
       id="g1023">
      <g
         id="g877"
         transform="matrix(0.00345184,0,0,0.00345184,53.241176,159.13739)"
         style="fill:none;fill-rule:evenodd;stroke:none;stroke-width:5.24635">
        <path
           d="m 1969.3847,499.95594 c 119.6578,-119.6575 119.6468,-313.9622 0,-433.601204 L 589.62729,-1313.4102 c -119.6575,-119.6575 -313.951,-119.6575 -433.6085,0 L -1223.7315,66.339936 c -119.6574,119.657504 -119.6537,313.947404 0,433.604804 L 156.03729,1879.7098 c 119.639,119.6389 313.9399,119.6538 433.5974,0 z"
           style="clip-rule:evenodd;fill:#f1502f;fill-rule:evenodd;stroke-width:27.5242;stroke-linecap:square;stroke-miterlimit:1.5"
           id="path6"
           inkscape:connector-curvature="0" />
        <g
           id="g8"
           transform="matrix(6.5212185,0,0,6.5212185,-1852.4806,-4483.5298)"
           style="clip-rule:evenodd;fill-rule:evenodd;stroke-linecap:square;stroke-miterlimit:1.5">
          <circle
             id="circle10"
             style="fill:#ffffff"
             r="40.599998"
             cy="605.211"
             cx="292.38199" />
        </g>
        <g
           id="g12"
           transform="matrix(5.3798741,0,0,5.3798741,-2129.1366,-2481.159)"
           style="clip-rule:evenodd;fill-rule:evenodd;stroke-linecap:square;stroke-miterlimit:1.5">
          <circle
             id="circle14"
             style="fill:#ffffff"
             r="40.599998"
             cy="605.211"
             cx="292.38199" />
        </g>
        <g
           id="g16"
           transform="matrix(3.4841092,0,0,3.4841092,-1121.7369,-1505.464)"
           style="clip-rule:evenodd;fill-rule:evenodd;stroke-linecap:square;stroke-miterlimit:1.5">
          <circle
             id="circle18"
             style="fill:#ffffff"
             r="40.599998"
             cy="605.211"
             cx="292.38199" />
        </g>
        <g
           id="g20"
           transform="matrix(3.4841092,0,0,3.4841092,178.74519,-1999.5531)"
           style="clip-rule:evenodd;fill-rule:evenodd;stroke-linecap:square;stroke-miterlimit:1.5">
          <circle
             id="circle22"
             style="fill:#ffffff"
             r="40.599998"
             cy="605.211"
             cx="292.38199" />
        </g>
        <g
           id="g24"
           transform="matrix(5.2463544,0,0,5.2463544,-4166.5562,-1753.5744)"
           style="clip-rule:evenodd;fill-rule:evenodd;stroke-linecap:square;stroke-miterlimit:1.5">
          <path
             inkscape:connector-curvature="0"
             id="path26"
             style="fill:none;stroke:#ffffff;stroke-width:25px"
             d="m 824.951,268.048 73.481,127.391 -80.428,84.753 4.682,124.633 -35.784,-0.971" />
        </g>
        <path
           inkscape:connector-curvature="0"
           id="path28"
           style="clip-rule:evenodd;fill:none;fill-rule:evenodd;stroke:#ffffff;stroke-width:131.159px;stroke-linecap:square;stroke-miterlimit:1.5"
           d="M 1107.0089,-1.4223644 603.60019,-544.8135 -132.53151,-78.166064 31.474788,278.75394 l -118.384,306.0671" />
        <g
           id="g30"
           transform="matrix(5.2069813,-0.6415453,0.6415453,5.2069813,-4594.8136,-1107.9926)"
           style="clip-rule:evenodd;fill-rule:evenodd;stroke-linecap:square;stroke-miterlimit:1.5">
          <path
             inkscape:connector-curvature="0"
             id="path32"
             style="fill:none;stroke:#ffffff;stroke-width:25px"
             d="m 989.073,592.703 16.907,-40.082 -59.796,-54.074 -2.237,-91.826" />
        </g>
        <path
           inkscape:connector-curvature="0"
           id="path34"
           style="clip-rule:evenodd;fill:none;fill-rule:evenodd;stroke:#ffffff;stroke-width:78.6953px;stroke-linecap:square;stroke-miterlimit:1.5"
           d="M 1183.6319,74.828136 -539.06627,781.67474" />
      </g>
      <text
         id="text89-7"
         y="158.16685"
         x="62.985191"
         style="font-size:5.33333px;line-height:1.25;font-family:'Open Sans';-inkscape-font-specification:'Open Sans';stroke-width:0.264583"
         xml:space="preserve"><tspan
           id="tspan95-6"
           style="stroke-width:0.264583"
           y="158.16685"
           x="62.985191"
           sodipodi:role="line">This warning will not show in</tspan><tspan
           style="stroke-width:0.264583"
           y="164.83351"
           x="62.985191"
           sodipodi:role="line"
           id="tspan146">output documentation.</tspan></text>
    </g>
    <g
       transform="matrix(4.4319681,0,0,4.4319681,-120.36485,-310.59969)"
       id="g1002">
      <text
         xml:space="preserve"
         style="font-size:8.87991px;line-height:1.25;font-family:'Open Sans';-inkscape-font-specification:'Open Sans';stroke-width:0.264583"
         x="65.41011"
         y="106.04971"
         id="text67"><tspan
           sodipodi:role="line"
           id="tspan65"
           x="65.41011"
           y="106.04971"
           style="font-style:normal;font-variant:normal;font-weight:800;font-stretch:normal;font-family:'Open Sans';-inkscape-font-specification:'Open Sans Ultra-Bold';stroke-width:0.264583">Image outside project</tspan></text>
      <g
         id="g994"
         transform="matrix(1.0967253,0,0,1.0967253,84.269656,-9.0499415)"
         style="stroke-width:0.911805">
        <circle
           r="6.8385401"
           cy="102.06864"
           cx="-26.003611"
           id="path148"
           style="fill:#f1502f;fill-opacity:1;stroke:none;stroke-width:1.20625;stroke-linecap:round" />
        <text
           xml:space="preserve"
           style="font-size:10.5833px;line-height:1.25;font-family:'Open Sans';-inkscape-font-specification:'Open Sans';fill:#ffffff;fill-opacity:1;stroke:none;stroke-width:0.241248"
           x="-27.543564"
           y="105.78158"
           id="text67-2"><tspan
             sodipodi:role="line"
             id="tspan65-9"
             x="-27.543564"
             y="105.78158"
             style="font-style:normal;font-variant:normal;font-weight:800;font-stretch:normal;font-family:'Open Sans';-inkscape-font-specification:'Open Sans Ultra-Bold';fill:#ffffff;fill-opacity:1;stroke:none;stroke-width:0.241248">!</tspan></text>
      </g>
    </g>
  </g>
</svg>
